^D:\DRIVE\2017\PI-MARITA\PROIECTPI\PROIECTPIDBARAR\OPENCVAPPLICATION-VS2017_OCV340_BASIC\STDAFX.CPP
D:\DRIVE\2017\PI-MARITA\PROIECTPI\PROIECTPIDBARAR\OPENCVAPPLICATION-VS2017_OCV340_BASIC\X64\RELEASE\OPENCVAPPLICATION.PCH
D:\DRIVE\2017\PI-MARITA\PROIECTPI\PROIECTPIDBARAR\OPENCVAPPLICATION-VS2017_OCV340_BASIC\X64\RELEASE\VC141.PDB
D:\DRIVE\2017\PI-MARITA\PROIECTPI\PROIECTPIDBARAR\OPENCVAPPLICATION-VS2017_OCV340_BASIC\X64\RELEASE\STDAFX.OBJ
^D:\DRIVE\2017\PI-MARITA\PROIECTPI\PROIECTPIDBARAR\OPENCVAPPLICATION-VS2017_OCV340_BASIC\COMMON.CPP|D:\DRIVE\2017\PI-MARITA\PROIECTPI\PROIECTPIDBARAR\OPENCVAPPLICATION-VS2017_OCV340_BASIC\OPENCVAPPLICATION.CPP
D:\DRIVE\2017\PI-MARITA\PROIECTPI\PROIECTPIDBARAR\OPENCVAPPLICATION-VS2017_OCV340_BASIC\X64\RELEASE\VC141.PDB
D:\DRIVE\2017\PI-MARITA\PROIECTPI\PROIECTPIDBARAR\OPENCVAPPLICATION-VS2017_OCV340_BASIC\X64\RELEASE\COMMON.OBJ
D:\DRIVE\2017\PI-MARITA\PROIECTPI\PROIECTPIDBARAR\OPENCVAPPLICATION-VS2017_OCV340_BASIC\X64\RELEASE\OPENCVAPPLICATION.OBJ
^D:\DRIVE\2017\PI-MARITA\PROIECTPI\PROIECTPIDBARAR\OPENCVAPPLICATION-VS2017_OCV340_BASIC\COMMON.CPP
D:\DRIVE\2017\PI-MARITA\PROIECTPI\PROIECTPIDBARAR\OPENCVAPPLICATION-VS2017_OCV340_BASIC\X64\RELEASE\VC141.PDB
^D:\DRIVE\2017\PI-MARITA\PROIECTPI\PROIECTPIDBARAR\OPENCVAPPLICATION-VS2017_OCV340_BASIC\OPENCVAPPLICATION.CPP
D:\DRIVE\2017\PI-MARITA\PROIECTPI\PROIECTPIDBARAR\OPENCVAPPLICATION-VS2017_OCV340_BASIC\X64\RELEASE\VC141.PDB
D:\DRIVE\2017\PI-MARITA\PROIECTPI\PROIECTPIDBARAR\OPENCVAPPLICATION-VS2017_OCV340_BASIC\X64\RELEASE\OPENCVAPPLICATION.OBJ
