^D:\DRIVE\2017\PI-MARITA\PROIECTPI\PROIECTPIDBARAR\OPENCVAPPLICATION-VS2017_OCV340_BASIC\X64\RELEASE\COMMON.OBJ|D:\DRIVE\2017\PI-MARITA\PROIECTPI\PROIECTPIDBARAR\OPENCVAPPLICATION-VS2017_OCV340_BASIC\X64\RELEASE\OPENCVAPPLICATION.OBJ|D:\DRIVE\2017\PI-MARITA\PROIECTPI\PROIECTPIDBARAR\OPENCVAPPLICATION-VS2017_OCV340_BASIC\X64\RELEASE\STDAFX.OBJ
D:\DRIVE\2017\PI-MARITA\PROIECTPI\PROIECTPIDBARAR\OPENCVAPPLICATION-VS2017_OCV340_BASIC\X64\RELEASE\OPENCVAPPLICATION.EXE
D:\DRIVE\2017\PI-MARITA\PROIECTPI\PROIECTPIDBARAR\OPENCVAPPLICATION-VS2017_OCV340_BASIC\X64\RELEASE\OPENCVAPPLICATION.PDB
