^D:\Drive\2017\PI-Marita\ProiectPI\ProiectPIDBarar\OpenCVApplication-VS2017_OCV340_basic\OpenCVApplication.vcxproj
D:\Drive\2017\PI-Marita\ProiectPI\ProiectPIDBarar\OpenCVApplication-VS2017_OCV340_basic\x64\Release\OpenCVApplication.ipdb
D:\Drive\2017\PI-Marita\ProiectPI\ProiectPIDBarar\OpenCVApplication-VS2017_OCV340_basic\x64\Release\OpenCVApplication.iobj
^D:\Drive\2017\PI-Marita\ProiectPI\ProiectPIDBarar\OpenCVApplication-VS2017_OCV340_basic\OpenCVApplication.vcxproj
D:\Drive\2017\PI-Marita\ProiectPI\ProiectPIDBarar\OpenCVApplication-VS2017_OCV340_basic\x64\Release\OpenCVApplication.ipdb
D:\Drive\2017\PI-Marita\ProiectPI\ProiectPIDBarar\OpenCVApplication-VS2017_OCV340_basic\x64\Release\OpenCVApplication.iobj
^D:\Drive\2017\PI-Marita\ProiectPI\ProiectPIDBarar\OpenCVApplication-VS2017_OCV340_basic\OpenCVApplication.vcxproj
D:\Drive\2017\PI-Marita\ProiectPI\ProiectPIDBarar\OpenCVApplication-VS2017_OCV340_basic\x64\Release\OpenCVApplication.ipdb
D:\Drive\2017\PI-Marita\ProiectPI\ProiectPIDBarar\OpenCVApplication-VS2017_OCV340_basic\x64\Release\OpenCVApplication.iobj
^D:\Drive\2017\PI-Marita\ProiectPI\ProiectPIDBarar\OpenCVApplication-VS2017_OCV340_basic\OpenCVApplication.vcxproj
D:\Drive\2017\PI-Marita\ProiectPI\ProiectPIDBarar\OpenCVApplication-VS2017_OCV340_basic\x64\Release\OpenCVApplication.ipdb
D:\Drive\2017\PI-Marita\ProiectPI\ProiectPIDBarar\OpenCVApplication-VS2017_OCV340_basic\x64\Release\OpenCVApplication.iobj
^D:\Drive\2017\PI-Marita\ProiectPI\ProiectPIDBarar\OpenCVApplication-VS2017_OCV340_basic\OpenCVApplication.vcxproj
D:\Drive\2017\PI-Marita\ProiectPI\ProiectPIDBarar\OpenCVApplication-VS2017_OCV340_basic\x64\Release\OpenCVApplication.ipdb
D:\Drive\2017\PI-Marita\ProiectPI\ProiectPIDBarar\OpenCVApplication-VS2017_OCV340_basic\x64\Release\OpenCVApplication.iobj
^D:\Drive\2017\PI-Marita\ProiectPI\ProiectPIDBarar\OpenCVApplication-VS2017_OCV340_basic\OpenCVApplication.vcxproj
D:\Drive\2017\PI-Marita\ProiectPI\ProiectPIDBarar\OpenCVApplication-VS2017_OCV340_basic\x64\Release\OpenCVApplication.ipdb
D:\Drive\2017\PI-Marita\ProiectPI\ProiectPIDBarar\OpenCVApplication-VS2017_OCV340_basic\x64\Release\OpenCVApplication.iobj
^D:\Drive\2017\PI-Marita\ProiectPI\ProiectPIDBarar\OpenCVApplication-VS2017_OCV340_basic\OpenCVApplication.vcxproj
D:\Drive\2017\PI-Marita\ProiectPI\ProiectPIDBarar\OpenCVApplication-VS2017_OCV340_basic\x64\Release\OpenCVApplication.ipdb
D:\Drive\2017\PI-Marita\ProiectPI\ProiectPIDBarar\OpenCVApplication-VS2017_OCV340_basic\x64\Release\OpenCVApplication.iobj
^D:\Drive\2017\PI-Marita\ProiectPI\ProiectPIDBarar\OpenCVApplication-VS2017_OCV340_basic\OpenCVApplication.vcxproj
D:\Drive\2017\PI-Marita\ProiectPI\ProiectPIDBarar\OpenCVApplication-VS2017_OCV340_basic\x64\Release\OpenCVApplication.ipdb
D:\Drive\2017\PI-Marita\ProiectPI\ProiectPIDBarar\OpenCVApplication-VS2017_OCV340_basic\x64\Release\OpenCVApplication.iobj
^D:\Drive\2017\PI-Marita\ProiectPI\ProiectPIDBarar\OpenCVApplication-VS2017_OCV340_basic\OpenCVApplication.vcxproj
D:\Drive\2017\PI-Marita\ProiectPI\ProiectPIDBarar\OpenCVApplication-VS2017_OCV340_basic\x64\Release\OpenCVApplication.ipdb
D:\Drive\2017\PI-Marita\ProiectPI\ProiectPIDBarar\OpenCVApplication-VS2017_OCV340_basic\x64\Release\OpenCVApplication.iobj
^D:\Drive\2017\PI-Marita\ProiectPI\ProiectPIDBarar\OpenCVApplication-VS2017_OCV340_basic\OpenCVApplication.vcxproj
D:\Drive\2017\PI-Marita\ProiectPI\ProiectPIDBarar\OpenCVApplication-VS2017_OCV340_basic\x64\Release\OpenCVApplication.ipdb
D:\Drive\2017\PI-Marita\ProiectPI\ProiectPIDBarar\OpenCVApplication-VS2017_OCV340_basic\x64\Release\OpenCVApplication.iobj
^D:\Drive\2017\PI-Marita\ProiectPI\ProiectPIDBarar\OpenCVApplication-VS2017_OCV340_basic\OpenCVApplication.vcxproj
D:\Drive\2017\PI-Marita\ProiectPI\ProiectPIDBarar\OpenCVApplication-VS2017_OCV340_basic\x64\Release\OpenCVApplication.ipdb
D:\Drive\2017\PI-Marita\ProiectPI\ProiectPIDBarar\OpenCVApplication-VS2017_OCV340_basic\x64\Release\OpenCVApplication.iobj
^D:\Drive\2017\PI-Marita\ProiectPI\ProiectPIDBarar\OpenCVApplication-VS2017_OCV340_basic\OpenCVApplication.vcxproj
D:\Drive\2017\PI-Marita\ProiectPI\ProiectPIDBarar\OpenCVApplication-VS2017_OCV340_basic\x64\Release\OpenCVApplication.ipdb
D:\Drive\2017\PI-Marita\ProiectPI\ProiectPIDBarar\OpenCVApplication-VS2017_OCV340_basic\x64\Release\OpenCVApplication.iobj
^D:\Drive\2017\PI-Marita\ProiectPI\ProiectPIDBarar\OpenCVApplication-VS2017_OCV340_basic\OpenCVApplication.vcxproj
D:\Drive\2017\PI-Marita\ProiectPI\ProiectPIDBarar\OpenCVApplication-VS2017_OCV340_basic\x64\Release\OpenCVApplication.ipdb
D:\Drive\2017\PI-Marita\ProiectPI\ProiectPIDBarar\OpenCVApplication-VS2017_OCV340_basic\x64\Release\OpenCVApplication.iobj
^d:\Drive\2017\PI-Marita\ProiectPI\ProiectPIDBarar\OpenCVApplication-VS2017_OCV340_basic\OpenCVApplication.vcxproj
D:\Drive\2017\PI-Marita\ProiectPI\ProiectPIDBarar\OpenCVApplication-VS2017_OCV340_basic\x64\Release\OpenCVApplication.ipdb
D:\Drive\2017\PI-Marita\ProiectPI\ProiectPIDBarar\OpenCVApplication-VS2017_OCV340_basic\x64\Release\OpenCVApplication.iobj
^d:\Drive\2017\PI-Marita\ProiectPI\ProiectPIDBarar\OpenCVApplication-VS2017_OCV340_basic\OpenCVApplication.vcxproj
D:\Drive\2017\PI-Marita\ProiectPI\ProiectPIDBarar\OpenCVApplication-VS2017_OCV340_basic\x64\Release\OpenCVApplication.ipdb
D:\Drive\2017\PI-Marita\ProiectPI\ProiectPIDBarar\OpenCVApplication-VS2017_OCV340_basic\x64\Release\OpenCVApplication.iobj
^d:\Drive\2017\PI-Marita\ProiectPI\ProiectPIDBarar\OpenCVApplication-VS2017_OCV340_basic\OpenCVApplication.vcxproj
D:\Drive\2017\PI-Marita\ProiectPI\ProiectPIDBarar\OpenCVApplication-VS2017_OCV340_basic\x64\Release\OpenCVApplication.ipdb
D:\Drive\2017\PI-Marita\ProiectPI\ProiectPIDBarar\OpenCVApplication-VS2017_OCV340_basic\x64\Release\OpenCVApplication.iobj
^d:\Drive\2017\PI-Marita\ProiectPI\ProiectPIDBarar\OpenCVApplication-VS2017_OCV340_basic\OpenCVApplication.vcxproj
D:\Drive\2017\PI-Marita\ProiectPI\ProiectPIDBarar\OpenCVApplication-VS2017_OCV340_basic\x64\Release\OpenCVApplication.ipdb
D:\Drive\2017\PI-Marita\ProiectPI\ProiectPIDBarar\OpenCVApplication-VS2017_OCV340_basic\x64\Release\OpenCVApplication.iobj
^d:\Drive\2017\PI-Marita\ProiectPI\ProiectPIDBarar\OpenCVApplication-VS2017_OCV340_basic\OpenCVApplication.vcxproj
D:\Drive\2017\PI-Marita\ProiectPI\ProiectPIDBarar\OpenCVApplication-VS2017_OCV340_basic\x64\Release\OpenCVApplication.ipdb
D:\Drive\2017\PI-Marita\ProiectPI\ProiectPIDBarar\OpenCVApplication-VS2017_OCV340_basic\x64\Release\OpenCVApplication.iobj
^d:\Drive\2017\PI-Marita\ProiectPI\ProiectPIDBarar\OpenCVApplication-VS2017_OCV340_basic\OpenCVApplication.vcxproj
D:\Drive\2017\PI-Marita\ProiectPI\ProiectPIDBarar\OpenCVApplication-VS2017_OCV340_basic\x64\Release\OpenCVApplication.ipdb
D:\Drive\2017\PI-Marita\ProiectPI\ProiectPIDBarar\OpenCVApplication-VS2017_OCV340_basic\x64\Release\OpenCVApplication.iobj
^d:\Drive\2017\PI-Marita\ProiectPI\ProiectPIDBarar\OpenCVApplication-VS2017_OCV340_basic\OpenCVApplication.vcxproj
D:\Drive\2017\PI-Marita\ProiectPI\ProiectPIDBarar\OpenCVApplication-VS2017_OCV340_basic\x64\Release\OpenCVApplication.ipdb
D:\Drive\2017\PI-Marita\ProiectPI\ProiectPIDBarar\OpenCVApplication-VS2017_OCV340_basic\x64\Release\OpenCVApplication.iobj
^d:\Drive\2017\PI-Marita\ProiectPI\ProiectPIDBarar\OpenCVApplication-VS2017_OCV340_basic\OpenCVApplication.vcxproj
D:\Drive\2017\PI-Marita\ProiectPI\ProiectPIDBarar\OpenCVApplication-VS2017_OCV340_basic\x64\Release\OpenCVApplication.ipdb
D:\Drive\2017\PI-Marita\ProiectPI\ProiectPIDBarar\OpenCVApplication-VS2017_OCV340_basic\x64\Release\OpenCVApplication.iobj
^d:\Drive\2017\PI-Marita\ProiectPI\ProiectPIDBarar\OpenCVApplication-VS2017_OCV340_basic\OpenCVApplication.vcxproj
D:\Drive\2017\PI-Marita\ProiectPI\ProiectPIDBarar\OpenCVApplication-VS2017_OCV340_basic\x64\Release\OpenCVApplication.ipdb
D:\Drive\2017\PI-Marita\ProiectPI\ProiectPIDBarar\OpenCVApplication-VS2017_OCV340_basic\x64\Release\OpenCVApplication.iobj
^d:\Drive\2017\PI-Marita\ProiectPI\ProiectPIDBarar\OpenCVApplication-VS2017_OCV340_basic\OpenCVApplication.vcxproj
D:\Drive\2017\PI-Marita\ProiectPI\ProiectPIDBarar\OpenCVApplication-VS2017_OCV340_basic\x64\Release\OpenCVApplication.ipdb
D:\Drive\2017\PI-Marita\ProiectPI\ProiectPIDBarar\OpenCVApplication-VS2017_OCV340_basic\x64\Release\OpenCVApplication.iobj
^d:\Drive\2017\PI-Marita\ProiectPI\ProiectPIDBarar\OpenCVApplication-VS2017_OCV340_basic\OpenCVApplication.vcxproj
D:\Drive\2017\PI-Marita\ProiectPI\ProiectPIDBarar\OpenCVApplication-VS2017_OCV340_basic\x64\Release\OpenCVApplication.ipdb
D:\Drive\2017\PI-Marita\ProiectPI\ProiectPIDBarar\OpenCVApplication-VS2017_OCV340_basic\x64\Release\OpenCVApplication.iobj
^d:\Drive\2017\PI-Marita\ProiectPI\ProiectPIDBarar\OpenCVApplication-VS2017_OCV340_basic\OpenCVApplication.vcxproj
D:\Drive\2017\PI-Marita\ProiectPI\ProiectPIDBarar\OpenCVApplication-VS2017_OCV340_basic\x64\Release\OpenCVApplication.ipdb
D:\Drive\2017\PI-Marita\ProiectPI\ProiectPIDBarar\OpenCVApplication-VS2017_OCV340_basic\x64\Release\OpenCVApplication.iobj
^d:\Drive\2017\PI-Marita\ProiectPI\ProiectPIDBarar\OpenCVApplication-VS2017_OCV340_basic\OpenCVApplication.vcxproj
D:\Drive\2017\PI-Marita\ProiectPI\ProiectPIDBarar\OpenCVApplication-VS2017_OCV340_basic\x64\Release\OpenCVApplication.ipdb
D:\Drive\2017\PI-Marita\ProiectPI\ProiectPIDBarar\OpenCVApplication-VS2017_OCV340_basic\x64\Release\OpenCVApplication.iobj
^d:\Drive\2017\PI-Marita\ProiectPI\ProiectPIDBarar\OpenCVApplication-VS2017_OCV340_basic\OpenCVApplication.vcxproj
D:\Drive\2017\PI-Marita\ProiectPI\ProiectPIDBarar\OpenCVApplication-VS2017_OCV340_basic\x64\Release\OpenCVApplication.ipdb
D:\Drive\2017\PI-Marita\ProiectPI\ProiectPIDBarar\OpenCVApplication-VS2017_OCV340_basic\x64\Release\OpenCVApplication.iobj
^d:\Drive\2017\PI-Marita\ProiectPI\ProiectPIDBarar\OpenCVApplication-VS2017_OCV340_basic\OpenCVApplication.vcxproj
D:\Drive\2017\PI-Marita\ProiectPI\ProiectPIDBarar\OpenCVApplication-VS2017_OCV340_basic\x64\Release\OpenCVApplication.ipdb
D:\Drive\2017\PI-Marita\ProiectPI\ProiectPIDBarar\OpenCVApplication-VS2017_OCV340_basic\x64\Release\OpenCVApplication.iobj
^d:\Drive\2017\PI-Marita\ProiectPI\ProiectPIDBarar\OpenCVApplication-VS2017_OCV340_basic\OpenCVApplication.vcxproj
D:\Drive\2017\PI-Marita\ProiectPI\ProiectPIDBarar\OpenCVApplication-VS2017_OCV340_basic\x64\Release\OpenCVApplication.ipdb
D:\Drive\2017\PI-Marita\ProiectPI\ProiectPIDBarar\OpenCVApplication-VS2017_OCV340_basic\x64\Release\OpenCVApplication.iobj
^d:\Drive\2017\PI-Marita\ProiectPI\ProiectPIDBarar\OpenCVApplication-VS2017_OCV340_basic\OpenCVApplication.vcxproj
D:\Drive\2017\PI-Marita\ProiectPI\ProiectPIDBarar\OpenCVApplication-VS2017_OCV340_basic\x64\Release\OpenCVApplication.ipdb
D:\Drive\2017\PI-Marita\ProiectPI\ProiectPIDBarar\OpenCVApplication-VS2017_OCV340_basic\x64\Release\OpenCVApplication.iobj
^d:\Drive\2017\PI-Marita\ProiectPI\ProiectPIDBarar\OpenCVApplication-VS2017_OCV340_basic\OpenCVApplication.vcxproj
D:\Drive\2017\PI-Marita\ProiectPI\ProiectPIDBarar\OpenCVApplication-VS2017_OCV340_basic\x64\Release\OpenCVApplication.ipdb
D:\Drive\2017\PI-Marita\ProiectPI\ProiectPIDBarar\OpenCVApplication-VS2017_OCV340_basic\x64\Release\OpenCVApplication.iobj
^d:\Drive\2017\PI-Marita\ProiectPI\ProiectPIDBarar\OpenCVApplication-VS2017_OCV340_basic\OpenCVApplication.vcxproj
D:\Drive\2017\PI-Marita\ProiectPI\ProiectPIDBarar\OpenCVApplication-VS2017_OCV340_basic\x64\Release\OpenCVApplication.ipdb
D:\Drive\2017\PI-Marita\ProiectPI\ProiectPIDBarar\OpenCVApplication-VS2017_OCV340_basic\x64\Release\OpenCVApplication.iobj
^d:\Drive\2017\PI-Marita\ProiectPI\ProiectPIDBarar\OpenCVApplication-VS2017_OCV340_basic\OpenCVApplication.vcxproj
D:\Drive\2017\PI-Marita\ProiectPI\ProiectPIDBarar\OpenCVApplication-VS2017_OCV340_basic\x64\Release\OpenCVApplication.ipdb
D:\Drive\2017\PI-Marita\ProiectPI\ProiectPIDBarar\OpenCVApplication-VS2017_OCV340_basic\x64\Release\OpenCVApplication.iobj
^d:\Drive\2017\PI-Marita\ProiectPI\ProiectPIDBarar\OpenCVApplication-VS2017_OCV340_basic\OpenCVApplication.vcxproj
D:\Drive\2017\PI-Marita\ProiectPI\ProiectPIDBarar\OpenCVApplication-VS2017_OCV340_basic\x64\Release\OpenCVApplication.ipdb
D:\Drive\2017\PI-Marita\ProiectPI\ProiectPIDBarar\OpenCVApplication-VS2017_OCV340_basic\x64\Release\OpenCVApplication.iobj
^d:\Drive\2017\PI-Marita\ProiectPI\ProiectPIDBarar\OpenCVApplication-VS2017_OCV340_basic\OpenCVApplication.vcxproj
D:\Drive\2017\PI-Marita\ProiectPI\ProiectPIDBarar\OpenCVApplication-VS2017_OCV340_basic\x64\Release\OpenCVApplication.ipdb
D:\Drive\2017\PI-Marita\ProiectPI\ProiectPIDBarar\OpenCVApplication-VS2017_OCV340_basic\x64\Release\OpenCVApplication.iobj
^d:\Drive\2017\PI-Marita\ProiectPI\ProiectPIDBarar\OpenCVApplication-VS2017_OCV340_basic\OpenCVApplication.vcxproj
D:\Drive\2017\PI-Marita\ProiectPI\ProiectPIDBarar\OpenCVApplication-VS2017_OCV340_basic\x64\Release\OpenCVApplication.ipdb
D:\Drive\2017\PI-Marita\ProiectPI\ProiectPIDBarar\OpenCVApplication-VS2017_OCV340_basic\x64\Release\OpenCVApplication.iobj
^d:\Drive\2017\PI-Marita\ProiectPI\ProiectPIDBarar\OpenCVApplication-VS2017_OCV340_basic\OpenCVApplication.vcxproj
D:\Drive\2017\PI-Marita\ProiectPI\ProiectPIDBarar\OpenCVApplication-VS2017_OCV340_basic\x64\Release\OpenCVApplication.ipdb
D:\Drive\2017\PI-Marita\ProiectPI\ProiectPIDBarar\OpenCVApplication-VS2017_OCV340_basic\x64\Release\OpenCVApplication.iobj
^d:\Drive\2017\PI-Marita\ProiectPI\ProiectPIDBarar\OpenCVApplication-VS2017_OCV340_basic\OpenCVApplication.vcxproj
D:\Drive\2017\PI-Marita\ProiectPI\ProiectPIDBarar\OpenCVApplication-VS2017_OCV340_basic\x64\Release\OpenCVApplication.ipdb
D:\Drive\2017\PI-Marita\ProiectPI\ProiectPIDBarar\OpenCVApplication-VS2017_OCV340_basic\x64\Release\OpenCVApplication.iobj
^d:\Drive\2017\PI-Marita\ProiectPI\ProiectPIDBarar\OpenCVApplication-VS2017_OCV340_basic\OpenCVApplication.vcxproj
D:\Drive\2017\PI-Marita\ProiectPI\ProiectPIDBarar\OpenCVApplication-VS2017_OCV340_basic\x64\Release\OpenCVApplication.ipdb
D:\Drive\2017\PI-Marita\ProiectPI\ProiectPIDBarar\OpenCVApplication-VS2017_OCV340_basic\x64\Release\OpenCVApplication.iobj
^d:\Drive\2017\PI-Marita\ProiectPI\ProiectPIDBarar\OpenCVApplication-VS2017_OCV340_basic\OpenCVApplication.vcxproj
D:\Drive\2017\PI-Marita\ProiectPI\ProiectPIDBarar\OpenCVApplication-VS2017_OCV340_basic\x64\Release\OpenCVApplication.ipdb
D:\Drive\2017\PI-Marita\ProiectPI\ProiectPIDBarar\OpenCVApplication-VS2017_OCV340_basic\x64\Release\OpenCVApplication.iobj
^d:\Drive\2017\PI-Marita\ProiectPI\ProiectPIDBarar\OpenCVApplication-VS2017_OCV340_basic\OpenCVApplication.vcxproj
D:\Drive\2017\PI-Marita\ProiectPI\ProiectPIDBarar\OpenCVApplication-VS2017_OCV340_basic\x64\Release\OpenCVApplication.ipdb
D:\Drive\2017\PI-Marita\ProiectPI\ProiectPIDBarar\OpenCVApplication-VS2017_OCV340_basic\x64\Release\OpenCVApplication.iobj
^d:\Drive\2017\PI-Marita\ProiectPI\ProiectPIDBarar\OpenCVApplication-VS2017_OCV340_basic\OpenCVApplication.vcxproj
D:\Drive\2017\PI-Marita\ProiectPI\ProiectPIDBarar\OpenCVApplication-VS2017_OCV340_basic\x64\Release\OpenCVApplication.ipdb
D:\Drive\2017\PI-Marita\ProiectPI\ProiectPIDBarar\OpenCVApplication-VS2017_OCV340_basic\x64\Release\OpenCVApplication.iobj
^d:\Drive\2017\PI-Marita\ProiectPI\ProiectPIDBarar\OpenCVApplication-VS2017_OCV340_basic\OpenCVApplication.vcxproj
D:\Drive\2017\PI-Marita\ProiectPI\ProiectPIDBarar\OpenCVApplication-VS2017_OCV340_basic\x64\Release\OpenCVApplication.ipdb
D:\Drive\2017\PI-Marita\ProiectPI\ProiectPIDBarar\OpenCVApplication-VS2017_OCV340_basic\x64\Release\OpenCVApplication.iobj
^d:\Drive\2017\PI-Marita\ProiectPI\ProiectPIDBarar\OpenCVApplication-VS2017_OCV340_basic\OpenCVApplication.vcxproj
D:\Drive\2017\PI-Marita\ProiectPI\ProiectPIDBarar\OpenCVApplication-VS2017_OCV340_basic\x64\Release\OpenCVApplication.ipdb
D:\Drive\2017\PI-Marita\ProiectPI\ProiectPIDBarar\OpenCVApplication-VS2017_OCV340_basic\x64\Release\OpenCVApplication.iobj
^d:\Drive\2017\PI-Marita\ProiectPI\ProiectPIDBarar\OpenCVApplication-VS2017_OCV340_basic\OpenCVApplication.vcxproj
D:\Drive\2017\PI-Marita\ProiectPI\ProiectPIDBarar\OpenCVApplication-VS2017_OCV340_basic\x64\Release\OpenCVApplication.ipdb
D:\Drive\2017\PI-Marita\ProiectPI\ProiectPIDBarar\OpenCVApplication-VS2017_OCV340_basic\x64\Release\OpenCVApplication.iobj
^d:\Drive\2017\PI-Marita\ProiectPI\ProiectPIDBarar\OpenCVApplication-VS2017_OCV340_basic\OpenCVApplication.vcxproj
D:\Drive\2017\PI-Marita\ProiectPI\ProiectPIDBarar\OpenCVApplication-VS2017_OCV340_basic\x64\Release\OpenCVApplication.ipdb
D:\Drive\2017\PI-Marita\ProiectPI\ProiectPIDBarar\OpenCVApplication-VS2017_OCV340_basic\x64\Release\OpenCVApplication.iobj
^d:\Drive\2017\PI-Marita\ProiectPI\ProiectPIDBarar\OpenCVApplication-VS2017_OCV340_basic\OpenCVApplication.vcxproj
D:\Drive\2017\PI-Marita\ProiectPI\ProiectPIDBarar\OpenCVApplication-VS2017_OCV340_basic\x64\Release\OpenCVApplication.ipdb
D:\Drive\2017\PI-Marita\ProiectPI\ProiectPIDBarar\OpenCVApplication-VS2017_OCV340_basic\x64\Release\OpenCVApplication.iobj
^D:\Drive\2017\PI-Marita\ProiectPI\ProiectPIDBarar\OpenCVApplication-VS2017_OCV340_basic\OpenCVApplication.vcxproj
D:\Drive\2017\PI-Marita\ProiectPI\ProiectPIDBarar\OpenCVApplication-VS2017_OCV340_basic\x64\Release\OpenCVApplication.ipdb
D:\Drive\2017\PI-Marita\ProiectPI\ProiectPIDBarar\OpenCVApplication-VS2017_OCV340_basic\x64\Release\OpenCVApplication.iobj
^D:\Drive\2017\PI-Marita\ProiectPI\ProiectPIDBarar\OpenCVApplication-VS2017_OCV340_basic\OpenCVApplication.vcxproj
D:\Drive\2017\PI-Marita\ProiectPI\ProiectPIDBarar\OpenCVApplication-VS2017_OCV340_basic\x64\Release\OpenCVApplication.ipdb
D:\Drive\2017\PI-Marita\ProiectPI\ProiectPIDBarar\OpenCVApplication-VS2017_OCV340_basic\x64\Release\OpenCVApplication.iobj
^D:\Drive\2017\PI-Marita\ProiectPI\ProiectPIDBarar\OpenCVApplication-VS2017_OCV340_basic\OpenCVApplication.vcxproj
D:\Drive\2017\PI-Marita\ProiectPI\ProiectPIDBarar\OpenCVApplication-VS2017_OCV340_basic\x64\Release\OpenCVApplication.ipdb
D:\Drive\2017\PI-Marita\ProiectPI\ProiectPIDBarar\OpenCVApplication-VS2017_OCV340_basic\x64\Release\OpenCVApplication.iobj
^D:\Drive\2017\PI-Marita\ProiectPI\ProiectPIDBarar\OpenCVApplication-VS2017_OCV340_basic\OpenCVApplication.vcxproj
D:\Drive\2017\PI-Marita\ProiectPI\ProiectPIDBarar\OpenCVApplication-VS2017_OCV340_basic\x64\Release\OpenCVApplication.ipdb
D:\Drive\2017\PI-Marita\ProiectPI\ProiectPIDBarar\OpenCVApplication-VS2017_OCV340_basic\x64\Release\OpenCVApplication.iobj
^D:\Drive\2017\PI-Marita\ProiectPI\ProiectPIDBarar\OpenCVApplication-VS2017_OCV340_basic\OpenCVApplication.vcxproj
D:\Drive\2017\PI-Marita\ProiectPI\ProiectPIDBarar\OpenCVApplication-VS2017_OCV340_basic\x64\Release\OpenCVApplication.ipdb
D:\Drive\2017\PI-Marita\ProiectPI\ProiectPIDBarar\OpenCVApplication-VS2017_OCV340_basic\x64\Release\OpenCVApplication.iobj
^D:\Drive\2017\PI-Marita\ProiectPI\ProiectPIDBarar\OpenCVApplication-VS2017_OCV340_basic\OpenCVApplication.vcxproj
D:\Drive\2017\PI-Marita\ProiectPI\ProiectPIDBarar\OpenCVApplication-VS2017_OCV340_basic\x64\Release\OpenCVApplication.ipdb
D:\Drive\2017\PI-Marita\ProiectPI\ProiectPIDBarar\OpenCVApplication-VS2017_OCV340_basic\x64\Release\OpenCVApplication.iobj
^D:\Drive\2017\PI-Marita\ProiectPI\ProiectPIDBarar\OpenCVApplication-VS2017_OCV340_basic\OpenCVApplication.vcxproj
D:\Drive\2017\PI-Marita\ProiectPI\ProiectPIDBarar\OpenCVApplication-VS2017_OCV340_basic\x64\Release\OpenCVApplication.ipdb
D:\Drive\2017\PI-Marita\ProiectPI\ProiectPIDBarar\OpenCVApplication-VS2017_OCV340_basic\x64\Release\OpenCVApplication.iobj
^D:\Drive\2017\PI-Marita\ProiectPI\ProiectPIDBarar\OpenCVApplication-VS2017_OCV340_basic\OpenCVApplication.vcxproj
D:\Drive\2017\PI-Marita\ProiectPI\ProiectPIDBarar\OpenCVApplication-VS2017_OCV340_basic\x64\Release\OpenCVApplication.ipdb
D:\Drive\2017\PI-Marita\ProiectPI\ProiectPIDBarar\OpenCVApplication-VS2017_OCV340_basic\x64\Release\OpenCVApplication.iobj
^D:\Drive\2017\PI-Marita\ProiectPI\ProiectPIDBarar\OpenCVApplication-VS2017_OCV340_basic\OpenCVApplication.vcxproj
D:\Drive\2017\PI-Marita\ProiectPI\ProiectPIDBarar\OpenCVApplication-VS2017_OCV340_basic\x64\Release\OpenCVApplication.ipdb
D:\Drive\2017\PI-Marita\ProiectPI\ProiectPIDBarar\OpenCVApplication-VS2017_OCV340_basic\x64\Release\OpenCVApplication.iobj
^D:\Drive\2017\PI-Marita\ProiectPI\ProiectPIDBarar\OpenCVApplication-VS2017_OCV340_basic\OpenCVApplication.vcxproj
D:\Drive\2017\PI-Marita\ProiectPI\ProiectPIDBarar\OpenCVApplication-VS2017_OCV340_basic\x64\Release\OpenCVApplication.ipdb
D:\Drive\2017\PI-Marita\ProiectPI\ProiectPIDBarar\OpenCVApplication-VS2017_OCV340_basic\x64\Release\OpenCVApplication.iobj
^D:\Drive\2017\PI-Marita\ProiectPI\ProiectPIDBarar\OpenCVApplication-VS2017_OCV340_basic\OpenCVApplication.vcxproj
D:\Drive\2017\PI-Marita\ProiectPI\ProiectPIDBarar\OpenCVApplication-VS2017_OCV340_basic\x64\Release\OpenCVApplication.ipdb
D:\Drive\2017\PI-Marita\ProiectPI\ProiectPIDBarar\OpenCVApplication-VS2017_OCV340_basic\x64\Release\OpenCVApplication.iobj
^D:\Drive\2017\PI-Marita\ProiectPI\ProiectPIDBarar\OpenCVApplication-VS2017_OCV340_basic\OpenCVApplication.vcxproj
D:\Drive\2017\PI-Marita\ProiectPI\ProiectPIDBarar\OpenCVApplication-VS2017_OCV340_basic\x64\Release\OpenCVApplication.ipdb
D:\Drive\2017\PI-Marita\ProiectPI\ProiectPIDBarar\OpenCVApplication-VS2017_OCV340_basic\x64\Release\OpenCVApplication.iobj
^D:\Drive\2017\PI-Marita\ProiectPI\ProiectPIDBarar\OpenCVApplication-VS2017_OCV340_basic\OpenCVApplication.vcxproj
D:\Drive\2017\PI-Marita\ProiectPI\ProiectPIDBarar\OpenCVApplication-VS2017_OCV340_basic\x64\Release\OpenCVApplication.ipdb
D:\Drive\2017\PI-Marita\ProiectPI\ProiectPIDBarar\OpenCVApplication-VS2017_OCV340_basic\x64\Release\OpenCVApplication.iobj
^D:\Drive\2017\PI-Marita\ProiectPI\ProiectPIDBarar\OpenCVApplication-VS2017_OCV340_basic\OpenCVApplication.vcxproj
D:\Drive\2017\PI-Marita\ProiectPI\ProiectPIDBarar\OpenCVApplication-VS2017_OCV340_basic\x64\Release\OpenCVApplication.ipdb
D:\Drive\2017\PI-Marita\ProiectPI\ProiectPIDBarar\OpenCVApplication-VS2017_OCV340_basic\x64\Release\OpenCVApplication.iobj
^D:\Drive\2017\PI-Marita\ProiectPI\ProiectPIDBarar\OpenCVApplication-VS2017_OCV340_basic\OpenCVApplication.vcxproj
D:\Drive\2017\PI-Marita\ProiectPI\ProiectPIDBarar\OpenCVApplication-VS2017_OCV340_basic\x64\Release\OpenCVApplication.ipdb
D:\Drive\2017\PI-Marita\ProiectPI\ProiectPIDBarar\OpenCVApplication-VS2017_OCV340_basic\x64\Release\OpenCVApplication.iobj
^D:\Drive\2017\PI-Marita\ProiectPI\ProiectPIDBarar\OpenCVApplication-VS2017_OCV340_basic\OpenCVApplication.vcxproj
D:\Drive\2017\PI-Marita\ProiectPI\ProiectPIDBarar\OpenCVApplication-VS2017_OCV340_basic\x64\Release\OpenCVApplication.ipdb
D:\Drive\2017\PI-Marita\ProiectPI\ProiectPIDBarar\OpenCVApplication-VS2017_OCV340_basic\x64\Release\OpenCVApplication.iobj
^D:\Drive\2017\PI-Marita\ProiectPI\ProiectPIDBarar\OpenCVApplication-VS2017_OCV340_basic\OpenCVApplication.vcxproj
D:\Drive\2017\PI-Marita\ProiectPI\ProiectPIDBarar\OpenCVApplication-VS2017_OCV340_basic\x64\Release\OpenCVApplication.ipdb
D:\Drive\2017\PI-Marita\ProiectPI\ProiectPIDBarar\OpenCVApplication-VS2017_OCV340_basic\x64\Release\OpenCVApplication.iobj
^D:\Drive\2017\PI-Marita\ProiectPI\ProiectPIDBarar\OpenCVApplication-VS2017_OCV340_basic\OpenCVApplication.vcxproj
D:\Drive\2017\PI-Marita\ProiectPI\ProiectPIDBarar\OpenCVApplication-VS2017_OCV340_basic\x64\Release\OpenCVApplication.ipdb
D:\Drive\2017\PI-Marita\ProiectPI\ProiectPIDBarar\OpenCVApplication-VS2017_OCV340_basic\x64\Release\OpenCVApplication.iobj
^D:\Drive\2017\PI-Marita\ProiectPI\ProiectPIDBarar\OpenCVApplication-VS2017_OCV340_basic\OpenCVApplication.vcxproj
D:\Drive\2017\PI-Marita\ProiectPI\ProiectPIDBarar\OpenCVApplication-VS2017_OCV340_basic\x64\Release\OpenCVApplication.ipdb
D:\Drive\2017\PI-Marita\ProiectPI\ProiectPIDBarar\OpenCVApplication-VS2017_OCV340_basic\x64\Release\OpenCVApplication.iobj
^D:\Drive\2017\PI-Marita\ProiectPI\ProiectPIDBarar\OpenCVApplication-VS2017_OCV340_basic\OpenCVApplication.vcxproj
D:\Drive\2017\PI-Marita\ProiectPI\ProiectPIDBarar\OpenCVApplication-VS2017_OCV340_basic\x64\Release\OpenCVApplication.ipdb
D:\Drive\2017\PI-Marita\ProiectPI\ProiectPIDBarar\OpenCVApplication-VS2017_OCV340_basic\x64\Release\OpenCVApplication.iobj
^D:\Drive\2017\PI-Marita\ProiectPI\ProiectPIDBarar\OpenCVApplication-VS2017_OCV340_basic\OpenCVApplication.vcxproj
D:\Drive\2017\PI-Marita\ProiectPI\ProiectPIDBarar\OpenCVApplication-VS2017_OCV340_basic\x64\Release\OpenCVApplication.ipdb
D:\Drive\2017\PI-Marita\ProiectPI\ProiectPIDBarar\OpenCVApplication-VS2017_OCV340_basic\x64\Release\OpenCVApplication.iobj
^D:\Drive\2017\PI-Marita\ProiectPI\ProiectPIDBarar\OpenCVApplication-VS2017_OCV340_basic\OpenCVApplication.vcxproj
D:\Drive\2017\PI-Marita\ProiectPI\ProiectPIDBarar\OpenCVApplication-VS2017_OCV340_basic\x64\Release\OpenCVApplication.ipdb
D:\Drive\2017\PI-Marita\ProiectPI\ProiectPIDBarar\OpenCVApplication-VS2017_OCV340_basic\x64\Release\OpenCVApplication.iobj
^D:\Drive\2017\PI-Marita\ProiectPI\ProiectPIDBarar\OpenCVApplication-VS2017_OCV340_basic\OpenCVApplication.vcxproj
D:\Drive\2017\PI-Marita\ProiectPI\ProiectPIDBarar\OpenCVApplication-VS2017_OCV340_basic\x64\Release\OpenCVApplication.ipdb
D:\Drive\2017\PI-Marita\ProiectPI\ProiectPIDBarar\OpenCVApplication-VS2017_OCV340_basic\x64\Release\OpenCVApplication.iobj
^D:\Drive\2017\PI-Marita\ProiectPI\ProiectPIDBarar\OpenCVApplication-VS2017_OCV340_basic\OpenCVApplication.vcxproj
D:\Drive\2017\PI-Marita\ProiectPI\ProiectPIDBarar\OpenCVApplication-VS2017_OCV340_basic\x64\Release\OpenCVApplication.ipdb
D:\Drive\2017\PI-Marita\ProiectPI\ProiectPIDBarar\OpenCVApplication-VS2017_OCV340_basic\x64\Release\OpenCVApplication.iobj
^D:\Drive\2017\PI-Marita\ProiectPI\ProiectPIDBarar\OpenCVApplication-VS2017_OCV340_basic\OpenCVApplication.vcxproj
D:\Drive\2017\PI-Marita\ProiectPI\ProiectPIDBarar\OpenCVApplication-VS2017_OCV340_basic\x64\Release\OpenCVApplication.ipdb
D:\Drive\2017\PI-Marita\ProiectPI\ProiectPIDBarar\OpenCVApplication-VS2017_OCV340_basic\x64\Release\OpenCVApplication.iobj
^D:\Drive\2017\PI-Marita\ProiectPI\ProiectPIDBarar\OpenCVApplication-VS2017_OCV340_basic\OpenCVApplication.vcxproj
D:\Drive\2017\PI-Marita\ProiectPI\ProiectPIDBarar\OpenCVApplication-VS2017_OCV340_basic\x64\Release\OpenCVApplication.ipdb
D:\Drive\2017\PI-Marita\ProiectPI\ProiectPIDBarar\OpenCVApplication-VS2017_OCV340_basic\x64\Release\OpenCVApplication.iobj
^D:\Drive\2017\PI-Marita\ProiectPI\ProiectPIDBarar\OpenCVApplication-VS2017_OCV340_basic\OpenCVApplication.vcxproj
D:\Drive\2017\PI-Marita\ProiectPI\ProiectPIDBarar\OpenCVApplication-VS2017_OCV340_basic\x64\Release\OpenCVApplication.ipdb
D:\Drive\2017\PI-Marita\ProiectPI\ProiectPIDBarar\OpenCVApplication-VS2017_OCV340_basic\x64\Release\OpenCVApplication.iobj
^D:\Drive\2017\PI-Marita\ProiectPI\ProiectPIDBarar\OpenCVApplication-VS2017_OCV340_basic\OpenCVApplication.vcxproj
D:\Drive\2017\PI-Marita\ProiectPI\ProiectPIDBarar\OpenCVApplication-VS2017_OCV340_basic\x64\Release\OpenCVApplication.ipdb
D:\Drive\2017\PI-Marita\ProiectPI\ProiectPIDBarar\OpenCVApplication-VS2017_OCV340_basic\x64\Release\OpenCVApplication.iobj
^D:\Drive\2017\PI-Marita\ProiectPI\ProiectPIDBarar\OpenCVApplication-VS2017_OCV340_basic\OpenCVApplication.vcxproj
D:\Drive\2017\PI-Marita\ProiectPI\ProiectPIDBarar\OpenCVApplication-VS2017_OCV340_basic\x64\Release\OpenCVApplication.ipdb
D:\Drive\2017\PI-Marita\ProiectPI\ProiectPIDBarar\OpenCVApplication-VS2017_OCV340_basic\x64\Release\OpenCVApplication.iobj
^D:\Drive\2017\PI-Marita\ProiectPI\ProiectPIDBarar\OpenCVApplication-VS2017_OCV340_basic\OpenCVApplication.vcxproj
D:\Drive\2017\PI-Marita\ProiectPI\ProiectPIDBarar\OpenCVApplication-VS2017_OCV340_basic\x64\Release\OpenCVApplication.ipdb
D:\Drive\2017\PI-Marita\ProiectPI\ProiectPIDBarar\OpenCVApplication-VS2017_OCV340_basic\x64\Release\OpenCVApplication.iobj
^D:\Drive\2017\PI-Marita\ProiectPI\ProiectPIDBarar\OpenCVApplication-VS2017_OCV340_basic\OpenCVApplication.vcxproj
D:\Drive\2017\PI-Marita\ProiectPI\ProiectPIDBarar\OpenCVApplication-VS2017_OCV340_basic\x64\Release\OpenCVApplication.ipdb
D:\Drive\2017\PI-Marita\ProiectPI\ProiectPIDBarar\OpenCVApplication-VS2017_OCV340_basic\x64\Release\OpenCVApplication.iobj
^D:\Drive\2017\PI-Marita\ProiectPI\ProiectPIDBarar\OpenCVApplication-VS2017_OCV340_basic\OpenCVApplication.vcxproj
D:\Drive\2017\PI-Marita\ProiectPI\ProiectPIDBarar\OpenCVApplication-VS2017_OCV340_basic\x64\Release\OpenCVApplication.ipdb
D:\Drive\2017\PI-Marita\ProiectPI\ProiectPIDBarar\OpenCVApplication-VS2017_OCV340_basic\x64\Release\OpenCVApplication.iobj
^D:\Drive\2017\PI-Marita\ProiectPI\ProiectPIDBarar\OpenCVApplication-VS2017_OCV340_basic\OpenCVApplication.vcxproj
D:\Drive\2017\PI-Marita\ProiectPI\ProiectPIDBarar\OpenCVApplication-VS2017_OCV340_basic\x64\Release\OpenCVApplication.ipdb
D:\Drive\2017\PI-Marita\ProiectPI\ProiectPIDBarar\OpenCVApplication-VS2017_OCV340_basic\x64\Release\OpenCVApplication.iobj
^D:\Drive\2017\PI-Marita\ProiectPI\ProiectPIDBarar\OpenCVApplication-VS2017_OCV340_basic\OpenCVApplication.vcxproj
D:\Drive\2017\PI-Marita\ProiectPI\ProiectPIDBarar\OpenCVApplication-VS2017_OCV340_basic\x64\Release\OpenCVApplication.ipdb
D:\Drive\2017\PI-Marita\ProiectPI\ProiectPIDBarar\OpenCVApplication-VS2017_OCV340_basic\x64\Release\OpenCVApplication.iobj
^D:\Drive\2017\PI-Marita\ProiectPI\ProiectPIDBarar\OpenCVApplication-VS2017_OCV340_basic\OpenCVApplication.vcxproj
D:\Drive\2017\PI-Marita\ProiectPI\ProiectPIDBarar\OpenCVApplication-VS2017_OCV340_basic\x64\Release\OpenCVApplication.ipdb
D:\Drive\2017\PI-Marita\ProiectPI\ProiectPIDBarar\OpenCVApplication-VS2017_OCV340_basic\x64\Release\OpenCVApplication.iobj
^D:\Drive\2017\PI-Marita\ProiectPI\ProiectPIDBarar\OpenCVApplication-VS2017_OCV340_basic\OpenCVApplication.vcxproj
D:\Drive\2017\PI-Marita\ProiectPI\ProiectPIDBarar\OpenCVApplication-VS2017_OCV340_basic\x64\Release\OpenCVApplication.ipdb
D:\Drive\2017\PI-Marita\ProiectPI\ProiectPIDBarar\OpenCVApplication-VS2017_OCV340_basic\x64\Release\OpenCVApplication.iobj
^D:\Drive\2017\PI-Marita\ProiectPI\ProiectPIDBarar\OpenCVApplication-VS2017_OCV340_basic\OpenCVApplication.vcxproj
D:\Drive\2017\PI-Marita\ProiectPI\ProiectPIDBarar\OpenCVApplication-VS2017_OCV340_basic\x64\Release\OpenCVApplication.ipdb
D:\Drive\2017\PI-Marita\ProiectPI\ProiectPIDBarar\OpenCVApplication-VS2017_OCV340_basic\x64\Release\OpenCVApplication.iobj
^D:\Drive\2017\PI-Marita\ProiectPI\ProiectPIDBarar\OpenCVApplication-VS2017_OCV340_basic\OpenCVApplication.vcxproj
D:\Drive\2017\PI-Marita\ProiectPI\ProiectPIDBarar\OpenCVApplication-VS2017_OCV340_basic\x64\Release\OpenCVApplication.ipdb
D:\Drive\2017\PI-Marita\ProiectPI\ProiectPIDBarar\OpenCVApplication-VS2017_OCV340_basic\x64\Release\OpenCVApplication.iobj
^D:\Drive\2017\PI-Marita\ProiectPI\ProiectPIDBarar\OpenCVApplication-VS2017_OCV340_basic\OpenCVApplication.vcxproj
D:\Drive\2017\PI-Marita\ProiectPI\ProiectPIDBarar\OpenCVApplication-VS2017_OCV340_basic\x64\Release\OpenCVApplication.ipdb
D:\Drive\2017\PI-Marita\ProiectPI\ProiectPIDBarar\OpenCVApplication-VS2017_OCV340_basic\x64\Release\OpenCVApplication.iobj
^D:\Drive\2017\PI-Marita\ProiectPI\ProiectPIDBarar\OpenCVApplication-VS2017_OCV340_basic\OpenCVApplication.vcxproj
D:\Drive\2017\PI-Marita\ProiectPI\ProiectPIDBarar\OpenCVApplication-VS2017_OCV340_basic\x64\Release\OpenCVApplication.ipdb
D:\Drive\2017\PI-Marita\ProiectPI\ProiectPIDBarar\OpenCVApplication-VS2017_OCV340_basic\x64\Release\OpenCVApplication.iobj
^D:\Drive\2017\PI-Marita\ProiectPI\ProiectPIDBarar\OpenCVApplication-VS2017_OCV340_basic\OpenCVApplication.vcxproj
D:\Drive\2017\PI-Marita\ProiectPI\ProiectPIDBarar\OpenCVApplication-VS2017_OCV340_basic\x64\Release\OpenCVApplication.ipdb
D:\Drive\2017\PI-Marita\ProiectPI\ProiectPIDBarar\OpenCVApplication-VS2017_OCV340_basic\x64\Release\OpenCVApplication.iobj
^D:\Drive\2017\PI-Marita\ProiectPI\ProiectPIDBarar\OpenCVApplication-VS2017_OCV340_basic\OpenCVApplication.vcxproj
D:\Drive\2017\PI-Marita\ProiectPI\ProiectPIDBarar\OpenCVApplication-VS2017_OCV340_basic\x64\Release\OpenCVApplication.ipdb
D:\Drive\2017\PI-Marita\ProiectPI\ProiectPIDBarar\OpenCVApplication-VS2017_OCV340_basic\x64\Release\OpenCVApplication.iobj
^D:\Drive\2017\PI-Marita\ProiectPI\ProiectPIDBarar\OpenCVApplication-VS2017_OCV340_basic\OpenCVApplication.vcxproj
D:\Drive\2017\PI-Marita\ProiectPI\ProiectPIDBarar\OpenCVApplication-VS2017_OCV340_basic\x64\Release\OpenCVApplication.ipdb
D:\Drive\2017\PI-Marita\ProiectPI\ProiectPIDBarar\OpenCVApplication-VS2017_OCV340_basic\x64\Release\OpenCVApplication.iobj
^D:\Drive\2017\PI-Marita\ProiectPI\ProiectPIDBarar\OpenCVApplication-VS2017_OCV340_basic\OpenCVApplication.vcxproj
D:\Drive\2017\PI-Marita\ProiectPI\ProiectPIDBarar\OpenCVApplication-VS2017_OCV340_basic\x64\Release\OpenCVApplication.ipdb
D:\Drive\2017\PI-Marita\ProiectPI\ProiectPIDBarar\OpenCVApplication-VS2017_OCV340_basic\x64\Release\OpenCVApplication.iobj
^D:\Drive\2017\PI-Marita\ProiectPI\ProiectPIDBarar\OpenCVApplication-VS2017_OCV340_basic\OpenCVApplication.vcxproj
D:\Drive\2017\PI-Marita\ProiectPI\ProiectPIDBarar\OpenCVApplication-VS2017_OCV340_basic\x64\Release\OpenCVApplication.ipdb
D:\Drive\2017\PI-Marita\ProiectPI\ProiectPIDBarar\OpenCVApplication-VS2017_OCV340_basic\x64\Release\OpenCVApplication.iobj
^D:\Drive\2017\PI-Marita\ProiectPI\ProiectPIDBarar\OpenCVApplication-VS2017_OCV340_basic\OpenCVApplication.vcxproj
D:\Drive\2017\PI-Marita\ProiectPI\ProiectPIDBarar\OpenCVApplication-VS2017_OCV340_basic\x64\Release\OpenCVApplication.ipdb
D:\Drive\2017\PI-Marita\ProiectPI\ProiectPIDBarar\OpenCVApplication-VS2017_OCV340_basic\x64\Release\OpenCVApplication.iobj
^D:\Drive\2017\PI-Marita\ProiectPI\ProiectPIDBarar\OpenCVApplication-VS2017_OCV340_basic\OpenCVApplication.vcxproj
D:\Drive\2017\PI-Marita\ProiectPI\ProiectPIDBarar\OpenCVApplication-VS2017_OCV340_basic\x64\Release\OpenCVApplication.ipdb
D:\Drive\2017\PI-Marita\ProiectPI\ProiectPIDBarar\OpenCVApplication-VS2017_OCV340_basic\x64\Release\OpenCVApplication.iobj
^D:\Drive\2017\PI-Marita\ProiectPI\ProiectPIDBarar\OpenCVApplication-VS2017_OCV340_basic\OpenCVApplication.vcxproj
D:\Drive\2017\PI-Marita\ProiectPI\ProiectPIDBarar\OpenCVApplication-VS2017_OCV340_basic\x64\Release\OpenCVApplication.ipdb
D:\Drive\2017\PI-Marita\ProiectPI\ProiectPIDBarar\OpenCVApplication-VS2017_OCV340_basic\x64\Release\OpenCVApplication.iobj
^D:\Drive\2017\PI-Marita\ProiectPI\ProiectPIDBarar\OpenCVApplication-VS2017_OCV340_basic\OpenCVApplication.vcxproj
D:\Drive\2017\PI-Marita\ProiectPI\ProiectPIDBarar\OpenCVApplication-VS2017_OCV340_basic\x64\Release\OpenCVApplication.ipdb
D:\Drive\2017\PI-Marita\ProiectPI\ProiectPIDBarar\OpenCVApplication-VS2017_OCV340_basic\x64\Release\OpenCVApplication.iobj
^D:\Drive\2017\PI-Marita\ProiectPI\ProiectPIDBarar\OpenCVApplication-VS2017_OCV340_basic\OpenCVApplication.vcxproj
D:\Drive\2017\PI-Marita\ProiectPI\ProiectPIDBarar\OpenCVApplication-VS2017_OCV340_basic\x64\Release\OpenCVApplication.ipdb
D:\Drive\2017\PI-Marita\ProiectPI\ProiectPIDBarar\OpenCVApplication-VS2017_OCV340_basic\x64\Release\OpenCVApplication.iobj
^D:\Drive\2017\PI-Marita\ProiectPI\ProiectPIDBarar\OpenCVApplication-VS2017_OCV340_basic\OpenCVApplication.vcxproj
D:\Drive\2017\PI-Marita\ProiectPI\ProiectPIDBarar\OpenCVApplication-VS2017_OCV340_basic\x64\Release\OpenCVApplication.ipdb
D:\Drive\2017\PI-Marita\ProiectPI\ProiectPIDBarar\OpenCVApplication-VS2017_OCV340_basic\x64\Release\OpenCVApplication.iobj
^D:\Drive\2017\PI-Marita\ProiectPI\ProiectPIDBarar\OpenCVApplication-VS2017_OCV340_basic\OpenCVApplication.vcxproj
D:\Drive\2017\PI-Marita\ProiectPI\ProiectPIDBarar\OpenCVApplication-VS2017_OCV340_basic\x64\Release\OpenCVApplication.ipdb
D:\Drive\2017\PI-Marita\ProiectPI\ProiectPIDBarar\OpenCVApplication-VS2017_OCV340_basic\x64\Release\OpenCVApplication.iobj
