^C:\USERS\DENISS\DESKTOP\PROIECTPIDBARAR\OPENCVAPPLICATION-VS2017_OCV340_BASIC\STDAFX.CPP
/c /IOPENCV/INCLUDE /ZI /nologo /W3 /WX- /diagnostics:classic /sdl /Od /D _DEBUG /D _CONSOLE /D _CRT_SECURE_NO_WARNINGS /D _MBCS /Gm- /EHsc /RTC1 /MDd /GS /fp:precise /Zc:wchar_t /Zc:forScope /Zc:inline /Yc"stdafx.h" /Fp"X64\DEBUG\OPENCVAPPLICATION.PCH" /Fo"X64\DEBUG\\" /Fd"X64\DEBUG\VC141.PDB" /Gd /TP /FC C:\USERS\DENISS\DESKTOP\PROIECTPIDBARAR\OPENCVAPPLICATION-VS2017_OCV340_BASIC\STDAFX.CPP
^C:\USERS\DENISS\DESKTOP\PROIECTPIDBARAR\OPENCVAPPLICATION-VS2017_OCV340_BASIC\COMMON.CPP
/c /IOPENCV/INCLUDE /ZI /nologo /W3 /WX- /diagnostics:classic /sdl /Od /D _DEBUG /D _CONSOLE /D _CRT_SECURE_NO_WARNINGS /D _MBCS /Gm- /EHsc /RTC1 /MDd /GS /fp:precise /Zc:wchar_t /Zc:forScope /Zc:inline /Yu"stdafx.h" /Fp"X64\DEBUG\OPENCVAPPLICATION.PCH" /Fo"X64\DEBUG\\" /Fd"X64\DEBUG\VC141.PDB" /Gd /TP /FC C:\USERS\DENISS\DESKTOP\PROIECTPIDBARAR\OPENCVAPPLICATION-VS2017_OCV340_BASIC\COMMON.CPP
^C:\USERS\DENISS\DESKTOP\PROIECTPIDBARAR\OPENCVAPPLICATION-VS2017_OCV340_BASIC\OPENCVAPPLICATION.CPP
/c /IOPENCV/INCLUDE /ZI /nologo /W3 /WX- /diagnostics:classic /sdl /Od /D _DEBUG /D _CONSOLE /D _CRT_SECURE_NO_WARNINGS /D _MBCS /Gm- /EHsc /RTC1 /MDd /GS /fp:precise /Zc:wchar_t /Zc:forScope /Zc:inline /Yu"stdafx.h" /Fp"X64\DEBUG\OPENCVAPPLICATION.PCH" /Fo"X64\DEBUG\\" /Fd"X64\DEBUG\VC141.PDB" /Gd /TP /FC C:\USERS\DENISS\DESKTOP\PROIECTPIDBARAR\OPENCVAPPLICATION-VS2017_OCV340_BASIC\OPENCVAPPLICATION.CPP
^D:\DRIVE\2017\PI-MARITA\PROIECTPI\PROIECTPIDBARAR\OPENCVAPPLICATION-VS2017_OCV340_BASIC\STDAFX.CPP
/c /IOPENCV/INCLUDE /ZI /nologo /W3 /WX- /diagnostics:classic /sdl /Od /D _DEBUG /D _CONSOLE /D _CRT_SECURE_NO_WARNINGS /D _MBCS /Gm- /EHsc /RTC1 /MDd /GS /fp:precise /Zc:wchar_t /Zc:forScope /Zc:inline /Yc"stdafx.h" /Fp"X64\DEBUG\OPENCVAPPLICATION.PCH" /Fo"X64\DEBUG\\" /Fd"X64\DEBUG\VC141.PDB" /Gd /TP /FC D:\DRIVE\2017\PI-MARITA\PROIECTPI\PROIECTPIDBARAR\OPENCVAPPLICATION-VS2017_OCV340_BASIC\STDAFX.CPP
^D:\DRIVE\2017\PI-MARITA\PROIECTPI\PROIECTPIDBARAR\OPENCVAPPLICATION-VS2017_OCV340_BASIC\COMMON.CPP
/c /IOPENCV/INCLUDE /ZI /nologo /W3 /WX- /diagnostics:classic /sdl /Od /D _DEBUG /D _CONSOLE /D _CRT_SECURE_NO_WARNINGS /D _MBCS /Gm- /EHsc /RTC1 /MDd /GS /fp:precise /Zc:wchar_t /Zc:forScope /Zc:inline /Yu"stdafx.h" /Fp"X64\DEBUG\OPENCVAPPLICATION.PCH" /Fo"X64\DEBUG\\" /Fd"X64\DEBUG\VC141.PDB" /Gd /TP /FC D:\DRIVE\2017\PI-MARITA\PROIECTPI\PROIECTPIDBARAR\OPENCVAPPLICATION-VS2017_OCV340_BASIC\COMMON.CPP
^D:\DRIVE\2017\PI-MARITA\PROIECTPI\PROIECTPIDBARAR\OPENCVAPPLICATION-VS2017_OCV340_BASIC\OPENCVAPPLICATION.CPP
/c /IOPENCV/INCLUDE /ZI /nologo /W3 /WX- /diagnostics:classic /sdl /Od /D _DEBUG /D _CONSOLE /D _CRT_SECURE_NO_WARNINGS /D _MBCS /Gm- /EHsc /RTC1 /MDd /GS /fp:precise /Zc:wchar_t /Zc:forScope /Zc:inline /Yu"stdafx.h" /Fp"X64\DEBUG\OPENCVAPPLICATION.PCH" /Fo"X64\DEBUG\\" /Fd"X64\DEBUG\VC141.PDB" /Gd /TP /FC D:\DRIVE\2017\PI-MARITA\PROIECTPI\PROIECTPIDBARAR\OPENCVAPPLICATION-VS2017_OCV340_BASIC\OPENCVAPPLICATION.CPP
